<?xml version="1.0" encoding="utf-8"?>
<!-- Generator: Adobe Illustrator 22.1.0, SVG Export Plug-In . SVG Version: 6.00 Build 0)  -->
<svg version="1.1" id="Layer_1" xmlns="http://www.w3.org/2000/svg" xmlns:xlink="http://www.w3.org/1999/xlink" x="0px" y="0px"
	 viewBox="0 0 512 512" style="enable-background:new 0 0 512 512;" xml:space="preserve">
<style type="text/css">
	.st0{fill:#FFFFFF;}
</style>
<g>
	<g>
		<path class="st0" d="M466.5,49.4c-7.1-8.3-17.4-13.1-28.3-13.1h-35.8V25.1c0-13.8-11.3-25.1-25.1-25.1H134.7
			c-13.8,0-25.1,11.3-25.1,25.1v11.2H73.8c-10.9,0-21.2,4.8-28.3,13.1c-7,8.2-10,19-8.3,29.6c9.4,57.8,45.8,108.9,97.4,136.9
			c4.7,11.3,10.1,22.1,16,32.1c19,32,42.6,54.1,68.6,64.8c2.6,26.6-15.1,51.9-41.8,57.9c-0.1,0-0.1,0-0.2,0
			c-5.2,1.2-9.1,5.9-9.1,11.5v54.4h-22c-19.6,0-35.5,15.9-35.5,35.5v28.1c0,6.5,5.3,11.9,11.8,11.9h268c6.5,0,11.9-5.3,11.9-11.9
			v-28.1c0-19.6-15.9-35.5-35.5-35.5h-22v-54.4c0-5.6-3.9-10.3-9.1-11.5c0,0-0.1,0-0.1,0c-26.9-6.1-44.7-31.5-41.8-58.4
			c25.5-10.9,48.8-32.8,67.5-64.3c5.9-10,11.3-20.8,16-32.1c51.6-28,88-79.1,97.4-136.9C476.5,68.4,473.4,57.6,466.5,49.4z
			 M60.7,75.2c-0.6-3.8,0.4-7.5,2.9-10.5c2.6-3,6.3-4.7,10.2-4.7h35.8v21.8c0,34.2,4.4,67.3,12.6,97.6
			C89.7,153.7,67.4,116.4,60.7,75.2z M366.9,460.2c6.5,0,11.9,5.3,11.9,11.9v16.2H134.4v-16.2c0-6.5,5.3-11.9,11.9-11.9H366.9z
			 M321.2,394v42.5H192V394H321.2z M223,370.3c2.9-3.2,5.6-6.7,8-10.5c7.9-12.3,12-26.4,12.2-40.7c4.2,0.6,8.5,0.9,12.7,0.9
			c4.7,0,9.3-0.4,13.9-1c0.3,19.2,7.8,37.5,20.3,51.3L223,370.3L223,370.3z M378.7,81.8c0,58.4-13.4,113.1-37.7,154
			c-23.2,39-53.4,60.5-85,60.5c-31.6,0-61.8-21.5-85-60.5c-24.3-41-37.7-95.7-37.7-154V25.1c0-0.8,0.6-1.4,1.4-1.4h242.6
			c0.8,0,1.4,0.6,1.4,1.4V81.8z M451.3,75.2c-6.7,41.2-29.1,78.5-61.6,104.2c8.3-30.3,12.6-63.4,12.6-97.6V60h35.8
			c3.9,0,7.7,1.7,10.2,4.7C450.9,67.7,452,71.4,451.3,75.2z"/>
	</g>
</g>
<g>
	<g>
		<path class="st0" d="M327.9,121.7c-1.4-4.3-5.1-7.4-9.6-8.1l-35.8-5.2l-16-32.4c-2-4-6.1-6.6-10.6-6.6c-4.5,0-8.6,2.6-10.6,6.6
			l-16,32.4l-35.8,5.2c-4.5,0.6-8.2,3.8-9.6,8.1c-1.4,4.3-0.2,9,3,12.1l25.9,25.2l-6.1,35.6c-0.8,4.4,1.1,8.9,4.7,11.6
			c3.6,2.7,8.5,3,12.5,0.9l32-16.8l32,16.8c1.7,0.9,3.6,1.4,5.5,1.4c2.5,0,4.9-0.8,7-2.3c3.6-2.7,5.5-7.1,4.7-11.6l-6.1-35.6
			l25.9-25.2C328.2,130.7,329.3,125.9,327.9,121.7z M278.1,146.4c-2.8,2.7-4.1,6.6-3.4,10.5l3.1,18.1l-16.2-8.5
			c-1.7-0.9-3.6-1.4-5.5-1.4c-1.9,0-3.8,0.5-5.5,1.4l-16.2,8.5l3.1-18.1c0.7-3.8-0.6-7.8-3.4-10.5l-13.1-12.8L239,131
			c3.9-0.6,7.2-3,8.9-6.5L256,108l8.1,16.5c1.7,3.5,5.1,5.9,8.9,6.5l18.2,2.6L278.1,146.4z"/>
	</g>
</g>
</svg>
